1 10 20
100 200 125
201 210 89
900 1000 174
666743 216341 509
459728 899563 525
463982 211495 449
843716 82934 525
138745 57869 354
759905 727799 424
144194 633260 509
438090 505455 444
237301 98339 443
64679 862689 525
397871 430240 449
431206 800687 509
803624 895318 525
127081 636302 509
517766 321480 470
895491 21652 525
682311 141813 509
24475 243896 443
59753 334026 443
737405 470314 509
711738 466352 509
303821 647406 509
973956 203327 525
703039 510741 509
129934 492339 449
721708 788502 468
365048 866893 525
963632 210828 525
643291 987487 525
249133 276745 407
21270 920429 525
684866 61662 509
134050 846936 525
41179 338502 443
906672 96990 525
802090 266275 509
194389 712515 509
90607 594772 470
572031 349200 470
225000 406777 443
640170 463956 509
295340 803084 509
25636 730439 509
598245 463952 470
977392 49260 525
683864 201044 509
58977 366725 443
245088 316059 407
408312 927468 525
47187 209482 383
333364 180172 443
34913 710002 509
826688 387613 509
200002 649514 509
344392 561883 470
687837 466113 509
4428 827627 509
214614 807645 509
605653 901757 525
302273 910283 525
552010 859684 525
649911 662816 429
230200 153085 386
342610 788389 509
477339 865313 525
711713 446712 509
218455 272767 443
718353 63894 509
524302 424871 470
749697 320161 509
929455 796901 525
636301 151322 509
771519 88054 509
918951 589256 525
474725 429139 444
991984 368870 525
883421 825384 525
337785 963314 525
580594 883352 525
187711 252536 443
419550 88512 449
113803 781409 509
133406 862716 525
39514 961437 525
783992 538879 509
840768 532842 525
597900 361404 470
151573 968999 525
72803 75763 325
327810 600595 470
456685 90280 449
185006 439154 449
397365 132205 443
553719 850046 525
840092 253543 525
841729 556740 525
897200 396611 525
22007 890822 525
220728 443079 449
452169 929668 525
738914 359238 509
39083 216633 386
848169 97493 525
907541 231854 525
76690 484517 449
958347 330632 525
389119 765973 509
335917 32689 443
547266 518667 452
581441 925320 525
272384 644784 509
755219 888637 525
800917 696788 504
698853 548106 509
939953 574950 525
258227 913316 525
985615 960447 458
62437 708630 509
504627 542866 470
42011 124998 354
771288 119466 509
931041 390176 525
939037 573709 525
850485 404731 525
768700 634133 504
546073 371400 470
561626 568398 421
705812 262337 509
604866 377560 470
857057 765168 525
762100 131014 509
530698 889279 525
462780 946927 525
704468 930135 525
945680 523496 525
307218 477470 449
532846 295104 470
988242 807954 525
148427 383176 443
475464 492039 413
509174 265514 449
382803 288245 441
317256 818311 509
524862 555811 452
284318 877104 525
551085 936442 525
772406 485421 509
608073 688378 509
215008 777466 509
974818 843271 507
