1 10 20
100 200 125
201 210 89
900 1000 174
253145 286433 407
504467 176725 449
16996 594288 470
915788 398680 525
643004 390504 509
669224 326619 509
472671 776516 509
664733 413319 509
987202 255745 525
783463 608872 509
229384 264745 443
311163 935646 525
287370 409261 441
94002 417049 449
974683 260603 525
309843 104187 443
57410 247807 443
222793 865188 525
585682 409239 470
397484 70892 443
697890 85330 509
464280 981365 525
10067 26344 282
503683 153588 449
468652 844686 525
320223 596008 470
573912 693291 509
521082 697095 509
712235 34942 509
502435 136010 449
490902 38842 449
297550 832112 509
661127 785555 504
763589 630028 504
430583 74724 449
12816 364587 443
956352 929085 507
284698 983873 525
702222 314226 509
379345 736242 509
665876 853406 525
31266 921690 525
511481 671988 509
395457 652818 509
873140 45874 525
522584 430223 470
109163 465399 449
201008 818711 509
635736 731349 504
552817 160724 470
298009 173631 443
966810 76613 525
926008 131053 525
287417 992872 525
527767 854629 525
108364 908448 525
245209 320944 407
292682 102856 443
434141 761236 509
102034 29190 351
527705 980932 525
474218 233120 449
934616 567324 525
435249 663594 509
485787 324357 449
866737 2675 525
595494 874953 525
355024 234018 441
513138 30856 470
249843 995610 525
882902 34730 525
765816 436535 509
684423 967007 525
352275 895156 525
320089 500191 449
174275 494912 449
784549 261112 509
629625 196456 509
651448 115816 509
323994 736187 509
688159 306213 509
639582 795770 504
99176 549240 470
749749 620404 509
376293 77240 443
914548 109931 525
238950 873892 525
632202 854061 525
482178 474669 413
214566 390653 443
182960 209165 373
564893 54613 470
278364 340602 389
911134 756569 525
931370 884087 476
148025 889117 525
362034 422584 449
717381 35054 509
364936 92788 443
712520 429835 509
291076 860544 525
343553 90481 443
154615 244132 443
453310 807372 509
927083 243868 525
443403 162490 449
945719 228078 525
507068 689380 509
408315 294400 441
86273 922021 525
846426 56320 525
191714 36131 383
123435 85835 354
402901 737094 509
759387 632002 504
145547 878541 525
998457 225154 525
170898 726104 509
890080 786539 525
821779 809524 450
877859 43312 525
352817 978965 525
405039 993942 525
634543 457895 509
992594 307967 525
1106 14567 276
586663 734324 509
835145 164779 509
421296 637063 509
603335 933805 525
641730 894963 525
799841 539332 509
328186 625414 470
621052 999346 525
598262 88295 470
458343 509835 444
304081 478336 449
906649 380432 525
663262 68008 509
544127 940150 525
1 1000000 525
1 1 1
