1 10 20
100 200 125
201 210 89
900 1000 174
1 1 1
1752 1852 162
1900 2000 175
10000 1000000 525
50 50 25
10 15 18
23 37 112
222 422 144
3000 5000 238
2000 12000 268
1 5000 238
5 10 20
3100 3109 155
10000 10000 30
900 900000 525
20 4987 238
1234 5678 238
802 1001 179
52 112 119
5 1000000 525
1 5 8
900000 9246885 686
763 7302 262
469 214 144
512 817 171
30 31 107
901 212 179
100 101 26
10 12 15
10000 10000 30
90000 90909 315
789 987 179
75044 78705 351
13 310 128
674 7878 262
40 78 116
11999 12000 188
2 222222 386
33210 49570 324
4617 370318 443
86684 7783 351
29223 42345 324
615 40159 324
810 4391 238
7 893 179
50 5248 238
653 399 145
4 338 144
67 500 144
2414 405 183
102 338 144
119 238 128
219 455 144
198 221 120
43 209 125
60 5223 238
281 59 128
11 22 21
114 225 125
62 496 144
1234 4321 238
4594 1880 238
28 318 131
777 7777 262
842 268 171
943 167 179
144 12 122
36 6 112
1 23476 279
6 48 112
151 554 144
22 193 125
78 79 36
92 112 119
9 26 24
80 256 128
69 172 125
85 307 128
7 1 17
1 52 112
52 365 144
9372 76196 340
284 1758 182
987 987 37
1025 4098 238
90 1934 182
4356 7689 262
592 1309 182
50000 100000 351
347 517 142
23 46 112
97 976431 525
42 97289 351
2145 2717 209
203 302 128
100 1582 182
14 111 119
37 7289 262
1 258852 443
2019 1960 175
1960 2016 175
2019 1992 144
1993 2019 144
2019 1995 144
1998 2019 144
2019 1918 175
110 28502 308
4212 9104 262
7491 862 262
22 9 21
8 42 112
132 140 91
7 8 17
602 501 137
27 30 112
120 145 122
972 6036 238
400 2383 183
316 9469 262
1 2 2
489 491 142
82 80002 351
1027 97 179
14 86 116
790 322 171
130 964 179
135 246 128
9208 7358 252
1385 184 182
139 2950 217
35895 2359 324
4838 9235 262
1357 2468 209
987 357 179
1 999999 525
140 9184 262
